Exp 6/data_rubidium/ALL0003/F0003CH1.CSV

Record Length,2.500000e+03,,   0.000270000000,   0.00800,
Sample Interval,1.000000e-06,,   0.000271000000,   0.00800,
Trigger Point,-2.700000000000e+02,,   0.000272000000,   0.00800,
,,,   0.000273000000,   0.00800,
,,,   0.000274000000,   0.00800,
,,,   0.000275000000,   0.00800,
Source,CH1,,   0.000276000000,   0.00800,
Vertical Units,V,,   0.000277000000,   0.00800,
Vertical Scale,2.000000e-01,,   0.000278000000,   0.01600,
Vertical Offset,-7.760000e-01,,   0.000279000000,   0.01600,
Horizontal Units,s,,   0.000280000000,   0.01600,
Horizontal Scale,2.500000e-04,,   0.000281000000,   0.01600,
Pt Fmt,Y,,   0.000282000000,   0.01600,
Yzero,0.000000e+00,,   0.000283000000,   0.01600,
Probe Atten,1.000000e+00,,   0.000284000000,   0.01600,
Model Number,TDS2004B,,   0.000285000000,   0.01600,
Serial Number,C020253,,   0.000286000000,   0.01600,
Firmware Version,FV:v21.20,,   0.000287000000,   0.01600,
,,,0.000288000000,   0.01600,
,,,0.000289000000,   0.01600,
,,,0.000290000000,   0.01600,
,,,0.000291000000,   0.01600,
,,,0.000292000000,   0.01600,
,,,0.000293000000,   0.01600,
,,,0.000294000000,   0.01600,
,,,0.000295000000,   0.01600,
,,,0.000296000000,   0.01600,
,,,0.000297000000,   0.02400,
,,,0.000298000000,   0.02400,
,,,0.000299000000,   0.02400,
,,,0.000300000000,   0.02400,
,,,0.000301000000,   0.03200,
,,,0.000302000000,   0.03200,
,,,0.000303000000,   0.04000,
,,,0.000304000000,   0.04800,
,,,0.000305000000,   0.05600,
,,,0.000306000000,   0.06400,
,,,0.000307000000,   0.07200,
,,,0.000308000000,   0.08000,
,,,0.000309000000,   0.09600,
,,,0.000310000000,   0.10400,
,,,0.000311000000,   0.12000,
,,,0.000312000000,   0.12800,
,,,0.000313000000,   0.13600,
,,,0.000314000000,   0.14400,
,,,0.000315000000,   0.15200,
,,,0.000316000000,   0.16000,
,,,0.000317000000,   0.16800,
,,,0.000318000000,   0.16800,
,,,0.000319000000,   0.16000,
,,,0.000320000000,   0.15200,
,,,0.000321000000,   0.14400,
,,,0.000322000000,   0.13600,
,,,0.000323000000,   0.12000,
,,,0.000324000000,   0.11200,
,,,0.000325000000,   0.10400,
,,,0.000326000000,   0.08800,
,,,0.000327000000,   0.08000,
,,,0.000328000000,   0.07200,
,,,0.000329000000,   0.06400,
,,,0.000330000000,   0.05600,
,,,0.000331000000,   0.04800,
,,,0.000332000000,   0.04000,
,,,0.000333000000,   0.04000,
,,,0.000334000000,   0.03200,
,,,0.000335000000,   0.03200,
,,,0.000336000000,   0.02400,
,,,0.000337000000,   0.02400,
,,,0.000338000000,   0.02400,
,,,0.000339000000,   0.01600,
,,,0.000340000000,   0.01600,
,,,0.000341000000,   0.01600,
,,,0.000342000000,   0.01600,
,,,0.000343000000,   0.01600,
,,,0.000344000000,   0.01600,
,,,0.000345000000,   0.01600,
,,,0.000346000000,   0.00800,
,,,0.000347000000,   0.00800,
,,,0.000348000000,   0.00800,
,,,0.000349000000,   0.00800,
,,,0.000350000000,   0.00800,
,,,0.000351000000,   0.00800,
,,,0.000352000000,   0.00800,
,,,0.000353000000,   0.00800,
,,,0.000354000000,   0.00800,
,,,0.000355000000,   0.00800,
,,,0.000356000000,   0.00800,
,,,0.000357000000,   0.00800,
,,,0.000358000000,   0.00800,
,,,0.000359000000,   0.00800,
,,,0.000360000000,   0.00800,
,,,0.000361000000,   0.00800,
,,,0.000362000000,   0.00800,
,,,0.000363000000,   0.00800,
,,,0.000364000000,   0.00800,
,,,0.000365000000,   0.00800,
,,,0.000366000000,   0.00800,
,,,0.000367000000,   0.00800,
,,,0.000368000000,   0.00800,
,,,0.000369000000,   0.00800,
,,,0.000370000000,   0.00800,
,,,0.000371000000,   0.00800,
,,,0.000372000000,   0.00000,
,,,0.000373000000,   0.00000,
,,,0.000374000000,   0.00000,
,,,0.000375000000,   0.00000,
,,,0.000376000000,   0.00000,
,,,0.000377000000,   0.00000,
,,,0.000378000000,   0.00000,
,,,0.000379000000,   0.00000,
,,,0.000380000000,   0.00000,
,,,0.000381000000,   0.00000,
,,,0.000382000000,   0.00000,
,,,0.000383000000,   0.00000,
,,,0.000384000000,   0.00000,
,,,0.000385000000,   0.00000,
,,,0.000386000000,   0.00000,
,,,0.000387000000,   0.00000,
,,,0.000388000000,   0.00000,
,,,0.000389000000,   0.00000,
,,,0.000390000000,   0.00000,
,,,0.000391000000,   0.00000,
,,,0.000392000000,   0.00000,
,,,0.000393000000,   0.00000,
,,,0.000394000000,   0.00000,
,,,0.000395000000,   0.00000,
,,,0.000396000000,   0.00000,
,,,0.000397000000,   0.00000,
,,,0.000398000000,   0.00000,
,,,0.000399000000,   0.00000,
,,,0.000400000000,   0.00000,
,,,0.000401000000,   0.00000,
,,,0.000402000000,   0.00000,
,,,0.000403000000,   0.00000,
,,,0.000404000000,   0.00000,
,,,0.000405000000,   0.00000,
,,,0.000406000000,   0.00000,
,,,0.000407000000,   0.00000,
,,,0.000408000000,   0.00000,
,,,0.000409000000,   0.00000,
,,,0.000410000000,   0.00000,
,,,0.000411000000,   0.00000,
,,,0.000412000000,   0.00000,
,,,0.000413000000,   0.00000,
,,,0.000414000000,   0.00000,
,,,0.000415000000,   0.00000,
,,,0.000416000000,   0.00000,
,,,0.000417000000,   0.00000,
,,,0.000418000000,   0.00000,
,,,0.000419000000,   0.00000,
,,,0.000420000000,   0.00000,
,,,0.000421000000,   0.00000,
,,,0.000422000000,   0.00000,
,,,0.000423000000,   0.00000,
,,,0.000424000000,   0.00000,
,,,0.000425000000,   0.00000,
,,,0.000426000000,   0.00000,
,,,0.000427000000,   0.00000,
,,,0.000428000000,   0.00000,
,,,0.000429000000,   0.00000,
,,,0.000430000000,   0.00000,
,,,0.000431000000,   0.00000,
,,,0.000432000000,   0.00000,
,,,0.000433000000,   0.00000,
,,,0.000434000000,   0.00000,
,,,0.000435000000,   0.00000,
,,,0.000436000000,   0.00000,
,,,0.000437000000,   0.00000,
,,,0.000438000000,   0.00000,
,,,0.000439000000,   0.00000,
,,,0.000440000000,   0.00000,
,,,0.000441000000,   0.00000,
,,,0.000442000000,   0.00000,
,,,0.000443000000,   0.00000,
,,,0.000444000000,   0.00000,
,,,0.000445000000,   0.00000,
,,,0.000446000000,   0.00000,
,,,0.000447000000,   0.00000,
,,,0.000448000000,   0.00000,
,,,0.000449000000,   0.00000,
,,,0.000450000000,   0.00000,
,,,0.000451000000,   0.00000,
,,,0.000452000000,   0.00000,
,,,0.000453000000,   0.00000,
,,,0.000454000000,   0.00000,
,,,0.000455000000,   0.00000,
,,,0.000456000000,   0.00000,
,,,0.000457000000,   0.00000,
,,,0.000458000000,   0.00000,
,,,0.000459000000,   0.00000,
,,,0.000460000000,   0.00000,
,,,0.000461000000,   0.00000,
,,,0.000462000000,   0.00000,
,,,0.000463000000,   0.00000,
,,,0.000464000000,   0.00000,
,,,0.000465000000,   0.00000,
,,,0.000466000000,   0.00000,
,,,0.000467000000,   0.00000,
,,,0.000468000000,   0.00000,
,,,0.000469000000,   0.00000,
,,,0.000470000000,   0.00000,
,,,0.000471000000,   0.00000,
,,,0.000472000000,   0.00000,
,,,0.000473000000,   0.00000,
,,,0.000474000000,   0.00000,
,,,0.000475000000,   0.00000,
,,,0.000476000000,   0.00000,
,,,0.000477000000,   0.00000,
,,,0.000478000000,   0.00000,
,,,0.000479000000,   0.00000,
,,,0.000480000000,   0.00000,
,,,0.000481000000,   0.00000,
,,,0.000482000000,   0.00000,
,,,0.000483000000,   0.00000,
,,,0.000484000000,   0.00000,
,,,0.000485000000,   0.00000,
,,,0.000486000000,   0.00000,
,,,0.000487000000,   0.00000,
,,,0.000488000000,   0.00000,
,,,0.000489000000,   0.00000,
,,,0.000490000000,   0.00000,
,,,0.000491000000,   0.00000,
,,,0.000492000000,   0.00000,
,,,0.000493000000,   0.00000,
,,,0.000494000000,   0.00000,
,,,0.000495000000,   0.00000,
,,,0.000496000000,   0.00000,
,,,0.000497000000,   0.00000,
,,,0.000498000000,   0.00000,
,,,0.000499000000,   0.00000,
,,,0.000500000000,   0.00000,
,,,0.000501000000,   0.00000,
,,,0.000502000000,   0.00000,
,,,0.000503000000,   0.00000,
,,,0.000504000000,   0.00000,
,,,0.000505000000,   0.00000,
,,,0.000506000000,   0.00000,
,,,0.000507000000,   0.00000,
,,,0.000508000000,   0.00000,
,,,0.000509000000,   0.00000,
,,,0.000510000000,   0.00000,
,,,0.000511000000,   0.00000,
,,,0.000512000000,   0.00000,
,,,0.000513000000,   0.00000,
,,,0.000514000000,   0.00000,
,,,0.000515000000,   0.00000,
,,,0.000516000000,   0.00000,
,,,0.000517000000,   0.00000,
,,,0.000518000000,   0.00000,
,,,0.000519000000,   0.00000,
,,,0.000520000000,   0.00000,
,,,0.000521000000,   0.00000,
,,,0.000522000000,   0.00000,
,,,0.000523000000,   0.00000,
,,,0.000524000000,   0.00000,
,,,0.000525000000,   0.00000,
,,,0.000526000000,   0.00000,
,,,0.000527000000,   0.00000,
,,,0.000528000000,   0.00000,
,,,0.000529000000,   0.00000,
,,,0.000530000000,   0.00000,
,,,0.000531000000,   0.00000,
,,,0.000532000000,   0.00000,
,,,0.000533000000,   0.00000,
,,,0.000534000000,   0.00000,
,,,0.000535000000,   0.00000,
,,,0.000536000000,   0.00000,
,,,0.000537000000,   0.00000,
,,,0.000538000000,   0.00000,
,,,0.000539000000,   0.00000,
,,,0.000540000000,   0.00000,
,,,0.000541000000,   0.00000,
,,,0.000542000000,   0.00000,
,,,0.000543000000,   0.00000,
,,,0.000544000000,   0.00000,
,,,0.000545000000,   0.00000,
,,,0.000546000000,   0.00000,
,,,0.000547000000,   0.00000,
,,,0.000548000000,   0.00000,
,,,0.000549000000,   0.00000,
,,,0.000550000000,   0.00000,
,,,0.000551000000,   0.00000,
,,,0.000552000000,   0.00000,
,,,0.000553000000,   0.00000,
,,,0.000554000000,   0.00000,
,,,0.000555000000,   0.00000,
,,,0.000556000000,   0.00000,
,,,0.000557000000,   0.00000,
,,,0.000558000000,   0.00000,
,,,0.000559000000,   0.00000,
,,,0.000560000000,   0.00000,
,,,0.000561000000,   0.00000,
,,,0.000562000000,   0.00000,
,,,0.000563000000,   0.00000,
,,,0.000564000000,   0.00000,
,,,0.000565000000,   0.00000,
,,,0.000566000000,   0.00000,
,,,0.000567000000,   0.00000,
,,,0.000568000000,   0.00000,
,,,0.000569000000,   0.00000,
,,,0.000570000000,   0.00000,
,,,0.000571000000,   0.00000,
,,,0.000572000000,   0.00000,
,,,0.000573000000,   0.00000,
,,,0.000574000000,   0.00000,
,,,0.000575000000,   0.00000,
,,,0.000576000000,   0.00000,
,,,0.000577000000,   0.00000,
,,,0.000578000000,   0.00000,
,,,0.000579000000,   0.00000,
,,,0.000580000000,   0.00000,
,,,0.000581000000,   0.00000,
,,,0.000582000000,   0.00000,
,,,0.000583000000,   0.00000,
,,,0.000584000000,   0.00000,
,,,0.000585000000,   0.00000,
,,,0.000586000000,   0.00000,
,,,0.000587000000,   0.00000,
,,,0.000588000000,   0.00000,
,,,0.000589000000,   0.00000,
,,,0.000590000000,   0.00000,
,,,0.000591000000,   0.00000,
,,,0.000592000000,   0.00000,
,,,0.000593000000,   0.00000,
,,,0.000594000000,   0.00000,
,,,0.000595000000,   0.00000,
,,,0.000596000000,   0.00000,
,,,0.000597000000,   0.00000,
,,,0.000598000000,   0.00000,
,,,0.000599000000,   0.00000,
,,,0.000600000000,   0.00000,
,,,0.000601000000,   0.00000,
,,,0.000602000000,   0.00000,
,,,0.000603000000,   0.00000,
,,,0.000604000000,   0.00000,
,,,0.000605000000,   0.00000,
,,,0.000606000000,   0.00000,
,,,0.000607000000,   0.00000,
,,,0.000608000000,   0.00000,
,,,0.000609000000,   0.00000,
,,,0.000610000000,   0.00000,
,,,0.000611000000,   0.00000,
,,,0.000612000000,   0.00000,
,,,0.000613000000,   0.00000,
,,,0.000614000000,   0.00000,
,,,0.000615000000,   0.00000,
,,,0.000616000000,   0.00000,
,,,0.000617000000,   0.00000,
,,,0.000618000000,   0.00000,
,,,0.000619000000,   0.00000,
,,,0.000620000000,   0.00000,
,,,0.000621000000,   0.00000,
,,,0.000622000000,   0.00000,
,,,0.000623000000,   0.00000,
,,,0.000624000000,   0.00000,
,,,0.000625000000,   0.00000,
,,,0.000626000000,   0.00000,
,,,0.000627000000,   0.00000,
,,,0.000628000000,   0.00000,
,,,0.000629000000,   0.00000,
,,,0.000630000000,   0.00000,
,,,0.000631000000,   0.00000,
,,,0.000632000000,   0.00000,
,,,0.000633000000,   0.00000,
,,,0.000634000000,   0.00000,
,,,0.000635000000,   0.00000,
,,,0.000636000000,   0.00000,
,,,0.000637000000,   0.00000,
,,,0.000638000000,   0.00000,
,,,0.000639000000,   0.00000,
,,,0.000640000000,   0.00000,
,,,0.000641000000,   0.00000,
,,,0.000642000000,   0.00000,
,,,0.000643000000,   0.00000,
,,,0.000644000000,   0.00000,
,,,0.000645000000,   0.00000,
,,,0.000646000000,   0.00000,
,,,0.000647000000,   0.00000,
,,,0.000648000000,   0.00000,
,,,0.000649000000,   0.00000,
,,,0.000650000000,   0.00000,
,,,0.000651000000,   0.00000,
,,,0.000652000000,   0.00000,
,,,0.000653000000,   0.00000,
,,,0.000654000000,   0.00000,
,,,0.000655000000,   0.00000,
,,,0.000656000000,   0.00000,
,,,0.000657000000,   0.00000,
,,,0.000658000000,   0.00000,
,,,0.000659000000,   0.00000,
,,,0.000660000000,   0.00000,
,,,0.000661000000,   0.00000,
,,,0.000662000000,   0.00000,
,,,0.000663000000,   0.00000,
,,,0.000664000000,   0.00000,
,,,0.000665000000,   0.00000,
,,,0.000666000000,   0.00000,
,,,0.000667000000,   0.00000,
,,,0.000668000000,   0.00000,
,,,0.000669000000,   0.00000,
,,,0.000670000000,   0.00000,
,,,0.000671000000,   0.00000,
,,,0.000672000000,   0.00000,
,,,0.000673000000,   0.00000,
,,,0.000674000000,   0.00000,
,,,0.000675000000,   0.00000,
,,,0.000676000000,   0.00000,
,,,0.000677000000,   0.00000,
,,,0.000678000000,   0.00000,
,,,0.000679000000,   0.00000,
,,,0.000680000000,   0.00000,
,,,0.000681000000,   0.00000,
,,,0.000682000000,   0.00000,
,,,0.000683000000,   0.00000,
,,,0.000684000000,   0.00000,
,,,0.000685000000,   0.00000,
,,,0.000686000000,   0.00000,
,,,0.000687000000,   0.00000,
,,,0.000688000000,   0.00000,
,,,0.000689000000,   0.00000,
,,,0.000690000000,   0.00000,
,,,0.000691000000,   0.00000,
,,,0.000692000000,   0.00000,
,,,0.000693000000,   0.00000,
,,,0.000694000000,   0.00000,
,,,0.000695000000,   0.00000,
,,,0.000696000000,   0.00000,
,,,0.000697000000,   0.00000,
,,,0.000698000000,   0.00000,
,,,0.000699000000,   0.00000,
,,,0.000700000000,   0.00000,
,,,0.000701000000,   0.00000,
,,,0.000702000000,   0.00000,
,,,0.000703000000,   0.00000,
,,,0.000704000000,   0.00000,
,,,0.000705000000,   0.00000,
,,,0.000706000000,   0.00000,
,,,0.000707000000,   0.00000,
,,,0.000708000000,   0.00000,
,,,0.000709000000,   0.00000,
,,,0.000710000000,   0.00000,
,,,0.000711000000,   0.00000,
,,,0.000712000000,   0.00000,
,,,0.000713000000,   0.00000,
,,,0.000714000000,   0.00000,
,,,0.000715000000,   0.00000,
,,,0.000716000000,   0.00000,
,,,0.000717000000,   0.00000,
,,,0.000718000000,   0.00000,
,,,0.000719000000,   0.00000,
,,,0.000720000000,   0.00000,
,,,0.000721000000,   0.00000,
,,,0.000722000000,   0.00000,
,,,0.000723000000,   0.00000,
,,,0.000724000000,   0.00000,
,,,0.000725000000,   0.00000,
,,,0.000726000000,   0.00000,
,,,0.000727000000,   0.00000,
,,,0.000728000000,   0.00000,
,,,0.000729000000,   0.00000,
,,,0.000730000000,   0.00000,
,,,0.000731000000,   0.00000,
,,,0.000732000000,   0.00000,
,,,0.000733000000,   0.00000,
,,,0.000734000000,   0.00000,
,,,0.000735000000,   0.00000,
,,,0.000736000000,   0.00000,
,,,0.000737000000,   0.00000,
,,,0.000738000000,   0.00000,
,,,0.000739000000,   0.00000,
,,,0.000740000000,   0.00000,
,,,0.000741000000,   0.00000,
,,,0.000742000000,   0.00000,
,,,0.000743000000,   0.00000,
,,,0.000744000000,   0.00000,
,,,0.000745000000,   0.00000,
,,,0.000746000000,   0.00000,
,,,0.000747000000,   0.00000,
,,,0.000748000000,   0.00000,
,,,0.000749000000,   0.00000,
,,,0.000750000000,   0.00000,
,,,0.000751000000,   0.00000,
,,,0.000752000000,   0.00000,
,,,0.000753000000,   0.00000,
,,,0.000754000000,   0.00000,
,,,0.000755000000,   0.00000,
,,,0.000756000000,   0.00000,
,,,0.000757000000,   0.00000,
,,,0.000758000000,   0.00000,
,,,0.000759000000,   0.00000,
,,,0.000760000000,   0.00000,
,,,0.000761000000,   0.00000,
,,,0.000762000000,   0.00000,
,,,0.000763000000,   0.00000,
,,,0.000764000000,   0.00000,
,,,0.000765000000,   0.00000,
,,,0.000766000000,   0.00000,
,,,0.000767000000,   0.00000,
,,,0.000768000000,   0.00000,
,,,0.000769000000,   0.00000,
,,,0.000770000000,   0.00000,
,,,0.000771000000,   0.00000,
,,,0.000772000000,   0.00000,
,,,0.000773000000,   0.00000,
,,,0.000774000000,   0.00000,
,,,0.000775000000,   0.00000,
,,,0.000776000000,   0.00000,
,,,0.000777000000,   0.00000,
,,,0.000778000000,   0.00000,
,,,0.000779000000,   0.00000,
,,,0.000780000000,   0.00000,
,,,0.000781000000,   0.00000,
,,,0.000782000000,   0.00000,
,,,0.000783000000,   0.00000,
,,,0.000784000000,   0.00000,
,,,0.000785000000,   0.00000,
,,,0.000786000000,   0.00000,
,,,0.000787000000,   0.00000,
,,,0.000788000000,   0.00000,
,,,0.000789000000,   0.00000,
,,,0.000790000000,   0.00000,
,,,0.000791000000,   0.00000,
,,,0.000792000000,   0.00000,
,,,0.000793000000,   0.00000,
,,,0.000794000000,   0.00000,
,,,0.000795000000,   0.00000,
,,,0.000796000000,   0.00000,
,,,0.000797000000,   0.00000,
,,,0.000798000000,   0.00000,
,,,0.000799000000,   0.00000,
,,,0.000800000000,   0.00000,
,,,0.000801000000,   0.00000,
,,,0.000802000000,   0.00000,
,,,0.000803000000,   0.00000,
,,,0.000804000000,   0.00000,
,,,0.000805000000,   0.00000,
,,,0.000806000000,   0.00000,
,,,0.000807000000,   0.00000,
,,,0.000808000000,   0.00000,
,,,0.000809000000,   0.00000,
,,,0.000810000000,   0.00000,
,,,0.000811000000,   0.00000,
,,,0.000812000000,   0.00000,
,,,0.000813000000,   0.00000,
,,,0.000814000000,   0.00000,
,,,0.000815000000,   0.00000,
,,,0.000816000000,   0.00000,
,,,0.000817000000,   0.00000,
,,,0.000818000000,   0.00000,
,,,0.000819000000,   0.00000,
,,,0.000820000000,   0.00000,
,,,0.000821000000,   0.00000,
,,,0.000822000000,   0.00000,
,,,0.000823000000,   0.00000,
,,,0.000824000000,   0.00000,
,,,0.000825000000,   0.00000,
,,,0.000826000000,   0.00000,
,,,0.000827000000,   0.00000,
,,,0.000828000000,   0.00000,
,,,0.000829000000,   0.00000,
,,,0.000830000000,   0.00000,
,,,0.000831000000,   0.00000,
,,,0.000832000000,   0.00000,
,,,0.000833000000,   0.00000,
,,,0.000834000000,   0.00000,
,,,0.000835000000,   0.00000,
,,,0.000836000000,   0.00000,
,,,0.000837000000,   0.00000,
,,,0.000838000000,   0.00000,
,,,0.000839000000,   0.00000,
,,,0.000840000000,   0.00000,
,,,0.000841000000,   0.00000,
,,,0.000842000000,   0.00000,
,,,0.000843000000,   0.00000,
,,,0.000844000000,   0.00000,
,,,0.000845000000,   0.00000,
,,,0.000846000000,   0.00000,
,,,0.000847000000,   0.00000,
,,,0.000848000000,   0.00000,
,,,0.000849000000,   0.00000,
,,,0.000850000000,   0.00000,
,,,0.000851000000,   0.00000,
,,,0.000852000000,   0.00000,
,,,0.000853000000,   0.00000,
,,,0.000854000000,   0.00000,
,,,0.000855000000,   0.00000,
,,,0.000856000000,   0.00000,
,,,0.000857000000,   0.00000,
,,,0.000858000000,   0.00000,
,,,0.000859000000,   0.00000,
,,,0.000860000000,   0.00000,
,,,0.000861000000,   0.00000,
,,,0.000862000000,   0.00000,
,,,0.000863000000,   0.00000,
,,,0.000864000000,   0.00000,
,,,0.000865000000,   0.00000,
,,,0.000866000000,   0.00000,
,,,0.000867000000,   0.00000,
,,,0.000868000000,   0.00000,
,,,0.000869000000,   0.00000,
,,,0.000870000000,   0.00000,
,,,0.000871000000,   0.00000,
,,,0.000872000000,   0.00000,
,,,0.000873000000,   0.00000,
,,,0.000874000000,   0.00000,
,,,0.000875000000,   0.00000,
,,,0.000876000000,   0.00000,
,,,0.000877000000,   0.00000,
,,,0.000878000000,   0.00000,
,,,0.000879000000,   0.00000,
,,,0.000880000000,   0.00000,
,,,0.000881000000,   0.00000,
,,,0.000882000000,   0.00000,
,,,0.000883000000,   0.00000,
,,,0.000884000000,   0.00000,
,,,0.000885000000,   0.00000,
,,,0.000886000000,   0.00000,
,,,0.000887000000,   0.00000,
,,,0.000888000000,   0.00000,
,,,0.000889000000,   0.00000,
,,,0.000890000000,   0.00000,
,,,0.000891000000,   0.00000,
,,,0.000892000000,   0.00000,
,,,0.000893000000,   0.00000,
,,,0.000894000000,   0.00000,
,,,0.000895000000,   0.00000,
,,,0.000896000000,   0.00000,
,,,0.000897000000,   0.00000,
,,,0.000898000000,   0.00000,
,,,0.000899000000,   0.00000,
,,,0.000900000000,   0.00000,
,,,0.000901000000,   0.00000,
,,,0.000902000000,   0.00000,
,,,0.000903000000,   0.00000,
,,,0.000904000000,   0.00000,
,,,0.000905000000,   0.00000,
,,,0.000906000000,   0.00000,
,,,0.000907000000,   0.00000,
,,,0.000908000000,   0.00000,
,,,0.000909000000,   0.00000,
,,,0.000910000000,   0.00000,
,,,0.000911000000,   0.00000,
,,,0.000912000000,   0.00000,
,,,0.000913000000,   0.00000,
,,,0.000914000000,   0.00000,
,,,0.000915000000,   0.00000,
,,,0.000916000000,   0.00000,
,,,0.000917000000,   0.00000,
,,,0.000918000000,   0.00000,
,,,0.000919000000,   0.00000,
,,,0.000920000000,   0.00000,
,,,0.000921000000,   0.00000,
,,,0.000922000000,   0.00000,
,,,0.000923000000,   0.00000,
